"m" ; "22" ; "Patrice" ; "Bender" 
"f" ; "15" ; "Ulrike" ; "Maehler" 
"m" ; "2" ; "Berta" ; "Mahler" 
"f" ; "252" ; "Fritz" ; "Bender" 
"m" ; "28" ; "Opa" ; "Blender" 
"f" ; "41" ; "Oma" ; "Muller" 
"m" ; "12" ; "GANGNIGGERFOSSIL"